﻿Aries 03/21/1000 04/20/1000 
Taurus 04/21/1000 05/20/1000 
Gemini 05/21/1000 06/20/1000 
Cancer 06/21/1000 07/22/1000 
Leo 07/23/1000 08/22/1000 
Virgo 08/23/1000 09/22/1000 
Libra 09/23/1000 10/22/1000 
Scorpio 10/23/1000 11/22/1000 
Sagittarius 11/23/1000 12/21/1000 
Capricorn 12/22/1000 01/19/1000 
Aquarius 01/20/1000 02/19/1000 
Pisces 02/20/1000 03/20/1000 